<?xml version="1.0" encoding="UTF-8"?>
<svg width="44px" height="44px" viewBox="0 0 44 44" version="1.1" xmlns="http://www.w3.org/2000/svg" xmlns:xlink="http://www.w3.org/1999/xlink">
    <!-- Generator: sketchtool 52.3 (67297) - http://www.bohemiancoding.com/sketch -->
    <title>77B43B31-D9C1-4312-A842-844C562AFE83</title>
    <desc>Created with sketchtool.</desc>
    <g id="Page-1" stroke="none" stroke-width="1" fill="none" fill-rule="evenodd">
        <g id="After_setup_login_dashboard" transform="translate(-939.000000, -688.000000)" fill="#FA60AD">
            <g id="metrics" transform="translate(938.000000, 688.000000)">
                <path d="M5,13 C4.448,13 4,12.552 4,12 L4,8 C4,7.448 4.448,7 5,7 C5.552,7 6,7.448 6,8 L6,12 C6,12.552 5.552,13 5,13 Z" id="Path"></path>
                <path d="M24.092,20.908 C23.702,20.518 23.702,19.884 24.092,19.494 L26.92,16.666 C27.31,16.276 27.944,16.276 28.334,16.666 C28.724,17.056 28.724,17.69 28.334,18.08 L25.506,20.908 C25.116,21.299 24.482,21.299 24.092,20.908 Z" id="Path"></path>
                <path d="M32,40 C32,39.448 32.448,39 33,39 L37,39 C37.552,39 38,39.448 38,40 C38,40.552 37.552,41 37,41 L33,41 C32.448,41 32,40.552 32,40 Z" id="Path"></path>
                <path d="M20,25 C20,25 9.391,41.266 7.828,42.828 C6.266,44.39 3.733,44.39 2.171,42.828 C0.609,41.266 0.609,38.733 2.171,37.171 C3.734,35.609 20,25 20,25 Z" id="Path"></path>
                <path d="M45,41 L43,41 L43,40 C43,19.047 25.953,2 5,2 L4,2 L4,0 L5,0 C27.056,0 45,17.944 45,40 L45,41 Z" id="Path"></path>
            </g>
        </g>
    </g>
</svg>