<?xml version="1.0" encoding="UTF-8"?>
<svg width="20px" height="12px" viewBox="0 0 20 12" version="1.1" xmlns="http://www.w3.org/2000/svg" xmlns:xlink="http://www.w3.org/1999/xlink">
    <!-- Generator: sketchtool 52.2 (67145) - http://www.bohemiancoding.com/sketch -->
    <title>F0D966C3-1CD9-48E7-BA5D-15E0A3AD826F</title>
    <desc>Created with sketchtool.</desc>
    <g id="Page-1" stroke="none" stroke-width="1" fill="none" fill-rule="evenodd" stroke-linecap="square">
        <g id="Schedule_a_meeting" transform="translate(-1680.000000, -57.000000)" stroke="#FFFFFF" stroke-width="2">
            <g id="small-down-copy-9" transform="translate(1682.000000, 59.000000)">
                <polyline id="Path" points="16 0 8 8 0 0"></polyline>
            </g>
        </g>
    </g>
</svg>