<?xml version="1.0" encoding="UTF-8"?>
<svg width="24px" height="21px" viewBox="0 0 24 21" version="1.1" xmlns="http://www.w3.org/2000/svg" xmlns:xlink="http://www.w3.org/1999/xlink">
    <!-- Generator: sketchtool 52.2 (67145) - http://www.bohemiancoding.com/sketch -->
    <title>2DE7BE96-31DD-453A-B842-6AA794E540DE</title>
    <desc>Created with sketchtool.</desc>
    <g id="Page-1" stroke="none" stroke-width="1" fill="none" fill-rule="evenodd" stroke-linecap="square">
        <g id="Select_Attributes_1" transform="translate(-928.000000, -532.000000)" stroke="#FA60AD" stroke-width="2">
            <g id="language" transform="translate(929.000000, 533.000000)">
                <path d="M0,19 L1,19 C2.1,19 3,18.1 3,17 L3,16 L0.8,14.8 C0.1,14.4 0.1,13.4 0.8,13 L3,12 L3,10 L5.3,9.4 C6.1,9.2 6.3,8.3 5.8,7.7 L3,5 L3,0" id="Path"></path>
                <path d="M7,14 L10,10 L10,4 C10,2.9 10.9,2 12,2 L20,2 C21.1,2 22,2.9 22,4 L22,12 C22,13.1 21.1,14 20,14 L13,14 L7,14 Z" id="Path"></path>
                <path d="M14,6 L18,6" id="Path"></path>
                <path d="M14,10 L16,10" id="Path"></path>
            </g>
        </g>
    </g>
</svg>