<?xml version="1.0" encoding="utf-8"?>
<!-- Generator: Adobe Illustrator 16.0.0, SVG Export Plug-In . SVG Version: 6.00 Build 0)  -->
<!DOCTYPE svg PUBLIC "-//W3C//DTD SVG 1.1//EN" "http://www.w3.org/Graphics/SVG/1.1/DTD/svg11.dtd">
<svg xmlns="http://www.w3.org/2000/svg" xmlns:xlink="http://www.w3.org/1999/xlink" version="1.1" id="Estate" x="0px" y="0px" width="512" height="512" viewBox="0 0 144.083 144" enable-background="new 0 0 144.083 144" xml:space="preserve">
<path d="M135.848,65.922l-6-27.554c-0.301-1.379-1.521-2.362-2.932-2.362h-6.926v-9.946c0-1.657-1.343-3-3-3h-10.643  c-1.657,0-3,1.343-3,3v9.946H40.733v-9.946c0-1.657-1.343-3-3-3H27.091c-1.657,0-3,1.343-3,3v9.946h-6.925  c-1.411,0-2.631,0.983-2.931,2.362l-6,27.554c-0.193,0.887,0.025,1.813,0.595,2.521c0.569,0.707,1.428,1.118,2.336,1.118h5.441  v48.379c0,1.657,1.343,3,3,3h27.573h15.449h18.824H96.5h27.975c1.657,0,3-1.343,3-3V69.561h5.441c0.908,0,1.767-0.411,2.336-1.118  C135.822,67.736,136.041,66.809,135.848,65.922z M109.348,29.061h4.643v6.946h-4.643V29.061z M72.042,83.811  c-7.5,0-13.602,6.102-13.602,13.602v17.527h-8.259V74.978h6.149c0.787,0,1.543-0.31,2.104-0.861l13.548-13.33l13.244,13.308  c0.563,0.566,1.328,0.884,2.126,0.884H93.5v39.962h-7.859V97.412C85.641,89.912,79.541,83.811,72.042,83.811z M64.44,97.412  c0-3.126,1.898-5.815,4.602-6.982v24.51H64.44V97.412z M75.042,90.431c2.702,1.166,4.6,3.855,4.6,6.981v17.527h-4.6V90.431z   M93.5,68.765v0.213h-4.901L74.13,54.439c-1.164-1.169-3.053-1.179-4.23-0.022L55.102,68.978h-4.921v-0.194l21.897-21.546  L93.5,68.765z M30.091,29.061h4.643v6.946h-4.643V29.061z M19.583,42.007h7.508h10.643h31.105L46.934,63.561H14.89L19.583,42.007z   M22.607,69.561h21.573v45.379H22.607V69.561z M121.475,114.939H99.5V69.561h21.975V114.939z M96.787,63.561L75.337,42.007h31.011  h10.643h7.509l4.693,21.554H96.787z"/>
<path d="M39.81,72.561H27.478c-1.657,0-3,1.344-3,3v12.333c0,1.657,1.343,3,3,3H39.81c1.657,0,3-1.343,3-3V75.561  C42.81,73.904,41.466,72.561,39.81,72.561z M36.81,84.894h-6.332v-6.333h6.332V84.894z"/>
<path d="M39.81,93.718H27.478c-1.657,0-3,1.343-3,3v12.333c0,1.657,1.343,3,3,3H39.81c1.657,0,3-1.343,3-3V96.718  C42.81,95.061,41.466,93.718,39.81,93.718z M36.81,106.051h-6.332v-6.333h6.332V106.051z"/>
<path d="M104.272,90.894h12.332c1.657,0,3-1.343,3-3V75.561c0-1.656-1.343-3-3-3h-12.332c-1.657,0-3,1.344-3,3v12.333  C101.272,89.551,102.615,90.894,104.272,90.894z M107.272,78.561h6.332v6.333h-6.332V78.561z"/>
<path d="M104.272,112.051h12.332c1.657,0,3-1.343,3-3V96.718c0-1.657-1.343-3-3-3h-12.332c-1.657,0-3,1.343-3,3v12.333  C101.272,110.708,102.615,112.051,104.272,112.051z M107.272,99.718h6.332v6.333h-6.332V99.718z"/>
</svg>
