<?xml version="1.0" encoding="UTF-8"?>
<svg width="1px" height="14px" viewBox="0 0 1 14" version="1.1" xmlns="http://www.w3.org/2000/svg" xmlns:xlink="http://www.w3.org/1999/xlink">
    <!-- Generator: sketchtool 52.2 (67145) - http://www.bohemiancoding.com/sketch -->
    <title>122E220E-0A02-475B-9916-A833B0D34E55</title>
    <desc>Created with sketchtool.</desc>
    <g id="Page-1" stroke="none" stroke-width="1" fill="none" fill-rule="evenodd" stroke-linecap="square">
        <g id="Review_request_2_320" transform="translate(-134.000000, -23.000000)" fill-rule="nonzero" stroke="#FFFFFF">
            <g id="Group" transform="translate(68.000000, 3.000000)">
                <path d="M66.5,21 L66.5,33.3847656" id="Line-3"></path>
            </g>
        </g>
    </g>
</svg>