<?xml version="1.0" encoding="UTF-8"?>
<svg width="15px" height="3px" viewBox="0 0 15 3" version="1.1" xmlns="http://www.w3.org/2000/svg" xmlns:xlink="http://www.w3.org/1999/xlink">
    <!-- Generator: sketchtool 52.2 (67145) - http://www.bohemiancoding.com/sketch -->
    <title>ED0ECD90-CCBD-4940-A3E5-5D114878070A</title>
    <desc>Created with sketchtool.</desc>
    <g id="Page-1" stroke="none" stroke-width="1" fill="none" fill-rule="evenodd" opacity="0.6" stroke-linecap="square">
        <g id="Select_Attributes_5_320" transform="translate(-95.000000, -460.000000)" stroke="#212121" stroke-width="2">
            <g id="open-to-close-copy" transform="translate(96.000000, 461.000000)">
                <path d="M13,0.5 L0,0.5" id="Path"></path>
            </g>
        </g>
    </g>
</svg>