<?xml version="1.0" encoding="UTF-8"?>
<svg width="20px" height="12px" viewBox="0 0 20 12" version="1.1" xmlns="http://www.w3.org/2000/svg" xmlns:xlink="http://www.w3.org/1999/xlink">
    <!-- Generator: sketchtool 52.2 (67145) - http://www.bohemiancoding.com/sketch -->
    <title>60AEE6E6-9228-41AF-A28A-4D0CBF7854DF</title>
    <desc>Created with sketchtool.</desc>
    <g id="Page-1" stroke="none" stroke-width="1" fill="none" fill-rule="evenodd" opacity="0.5" stroke-linecap="square">
        <g id="Select_Attributes_5_320" transform="translate(-266.000000, -328.000000)" stroke="#1D1A94" stroke-width="2">
            <g id="small-down-copy-5" transform="translate(268.000000, 330.000000)">
                <polyline id="Path" points="16 0 8 8 0 0"></polyline>
            </g>
        </g>
    </g>
</svg>