<?xml version="1.0" encoding="UTF-8"?>
<svg width="20px" height="12px" viewBox="0 0 20 12" version="1.1" xmlns="http://www.w3.org/2000/svg" xmlns:xlink="http://www.w3.org/1999/xlink">
    <!-- Generator: sketchtool 52.2 (67145) - http://www.bohemiancoding.com/sketch -->
    <title>3CE96346-4FEA-4BB8-A2FC-D59395C2CAF9</title>
    <desc>Created with sketchtool.</desc>
    <g id="Page-1" stroke="none" stroke-width="1" fill="none" fill-rule="evenodd" opacity="0.5" stroke-linecap="square">
        <g id="Select_Attributes_2_320" transform="translate(-266.000000, -433.000000)" stroke="#1D1A94" stroke-width="2">
            <g id="small-down-copy-6" transform="translate(268.000000, 435.000000)">
                <polyline id="Path" points="16 0 8 8 0 0"></polyline>
            </g>
        </g>
    </g>
</svg>