<?xml version="1.0" encoding="UTF-8"?>
<svg width="32px" height="35px" viewBox="0 0 32 35" version="1.1" xmlns="http://www.w3.org/2000/svg" xmlns:xlink="http://www.w3.org/1999/xlink">
    <!-- Generator: sketchtool 52.2 (67145) - http://www.bohemiancoding.com/sketch -->
    <title>A6049377-B343-4F07-BB05-976E4858BBEB</title>
    <desc>Created with sketchtool.</desc>
    <g id="Page-1" stroke="none" stroke-width="1" fill="none" fill-rule="evenodd">
        <g id="Thank_you_320" transform="translate(-145.000000, -736.000000)" stroke="#FA60AD" stroke-width="3">
            <g id="business-agent" transform="translate(147.000000, 738.000000)">
                <polyline id="Path" stroke-linecap="square" points="11 31 12.5 22 15.5 22 17 31"></polyline>
                <path d="M10.836,17 L1.3594,22.8959975 C0.5159,23.4207798 0,24.3658233 0,25.3856284 L0,31 L28,31 L28,25.3856284 C28,24.3658233 27.4841,23.4207798 26.6406,22.8959975 L17.164,17" id="Path"></path>
                <path d="M6,7.74709095 C6.69675894,7.90524816 7.41606437,8 8.16009819,8 C11.0111369,8 13.585072,6.84944194 15.4331561,5 C17.1234147,6.69057231 19.4369744,7.79268582 22,7.97007837" id="Path"></path>
                <path d="M6,8.30769231 C6,4.15384615 9.18036364,0 14,0 C18.8196364,0 22,4.15384615 22,8.30769231 C22,14.5384615 17.6363636,18 14,18 C10.3636364,18 6,14.5384615 6,8.30769231 Z" id="Path" stroke-linecap="square"></path>
            </g>
        </g>
    </g>
</svg>