<?xml version="1.0" encoding="UTF-8"?>
<svg width="36px" height="36px" viewBox="0 0 36 36" version="1.1" xmlns="http://www.w3.org/2000/svg" xmlns:xlink="http://www.w3.org/1999/xlink">
    <!-- Generator: sketchtool 52.2 (67145) - http://www.bohemiancoding.com/sketch -->
    <title>E3A528E7-E3AF-4E09-AE84-D3F299FF63D3</title>
    <desc>Created with sketchtool.</desc>
    <g id="Page-1" stroke="none" stroke-width="1" fill="none" fill-rule="evenodd">
        <g id="Thank_you_320" transform="translate(-142.000000, -908.000000)" stroke="#FA60AD" stroke-width="3">
            <g id="spaceship" transform="translate(144.000000, 910.000000)">
                <path d="M20,3 L29,12" id="Path"></path>
                <path d="M16,4.81248877 C11.9669694,3.00246776 6.79693059,4.1182637 3,9.15409321 L7.64882375,14" id="Path"></path>
                <path d="M27.1875112,16 C28.9975322,20.0330306 27.8817363,25.2030694 22.8459068,29 L18,24.3511763" id="Path"></path>
                <path d="M13.9444444,26 L6,18.0555556 C6,18.0555556 12.4234444,1.02122222 32,0 C30.8935556,19.4913333 13.9444444,26 13.9444444,26 Z" id="Path" stroke-linecap="square"></path>
                <circle id="Oval" stroke-linecap="square" cx="18" cy="14" r="3"></circle>
                <path d="M1.79189264,25.0651428 C3.2120831,23.6449524 5.51466673,23.6449524 6.93485716,25.0651428 C8.35504759,26.4853333 8.35504762,28.7879169 6.93485721,30.2081074 C5.51457868,31.6276587 0,32 0,32 C0,32 0.372341327,26.4854213 1.79189264,25.0651428 Z" id="Path" stroke-linecap="square"></path>
            </g>
        </g>
    </g>
</svg>