<?xml version="1.0" encoding="UTF-8"?>
<svg width="20px" height="20px" viewBox="0 0 20 20" version="1.1" xmlns="http://www.w3.org/2000/svg" xmlns:xlink="http://www.w3.org/1999/xlink">
    <!-- Generator: sketchtool 52.2 (67145) - http://www.bohemiancoding.com/sketch -->
    <title>22ACC1CE-8FAE-420C-9FF4-C630F5C0DDD9</title>
    <desc>Created with sketchtool.</desc>
    <g id="Page-1" stroke="none" stroke-width="1" fill="none" fill-rule="evenodd" stroke-linecap="square">
        <g id="Review_request_320" transform="translate(-20.000000, -691.000000)" stroke="#FA60AD" stroke-width="2">
            <g id="Group-2" transform="translate(21.000000, 692.000000)">
                <path d="M2.5,5 C1.67125,5 1,4.32875 1,3.5 C1,2.67125 1.67125,2 2.5,2 C3.32875,2 4,2.67125 4,3.5 C4,4.32875 3.32875,5 2.5,5 Z" id="Path"></path>
                <path d="M4,16 L1.6,16 L1.6,12.7272727 L0,12.7272727 L0,8.63636364 C0,7.73227273 0.716,7 1.6,7 L2.4,7" id="Path"></path>
                <path d="M15.5,5 C16.32875,5 17,4.32875 17,3.5 C17,2.67125 16.32875,2 15.5,2 C14.67125,2 14,2.67125 14,3.5 C14,4.32875 14.67125,5 15.5,5 Z" id="Path"></path>
                <path d="M14,16 L16.4,16 L16.4,12.7272727 L18,12.7272727 L18,8.63636364 C18,7.73227273 17.284,7 16.4,7 L15.6,7" id="Path"></path>
                <path d="M9.5,5 C8.11916667,5 7,3.88083333 7,2.5 C7,1.11916667 8.11916667,0 9.5,0 C10.8808333,0 12,1.11916667 12,2.5 C12,3.88083333 10.8808333,5 9.5,5 Z" id="Path"></path>
                <path d="M11.4,18 L6.6,18 L6.6,12.9230769 L5,12.9230769 L5,8.69230769 C5,7.75730769 5.716,7 6.6,7 L11.4,7 C12.284,7 13,7.75730769 13,8.69230769 L13,13.7692308 L11.4,13.7692308 L11.4,18 Z" id="Path"></path>
            </g>
        </g>
    </g>
</svg>