<?xml version="1.0" encoding="UTF-8"?>
<svg width="20px" height="15px" viewBox="0 0 20 15" version="1.1" xmlns="http://www.w3.org/2000/svg" xmlns:xlink="http://www.w3.org/1999/xlink">
    <!-- Generator: sketchtool 52.2 (67145) - http://www.bohemiancoding.com/sketch -->
    <title>54C5EB47-93AC-4BE5-8C8B-C726D9E10EDE</title>
    <desc>Created with sketchtool.</desc>
    <g id="Page-1" stroke="none" stroke-width="1" fill="none" fill-rule="evenodd" stroke-linecap="square">
        <g id="Review_request_320" transform="translate(-21.000000, -23.000000)" stroke="#FFFFFF" stroke-width="2">
            <g id="menu-34" transform="translate(22.000000, 24.000000)">
                <path d="M0,6.5 L18,6.5" id="Path"></path>
                <path d="M0,0.5 L18,0.5" id="Path"></path>
                <path d="M0,12.5 L18,12.5" id="Path"></path>
            </g>
        </g>
    </g>
</svg>