<?xml version="1.0" encoding="UTF-8"?>
<svg width="24px" height="24px" viewBox="0 0 24 24" version="1.1" xmlns="http://www.w3.org/2000/svg" xmlns:xlink="http://www.w3.org/1999/xlink">
    <!-- Generator: sketchtool 52.2 (67145) - http://www.bohemiancoding.com/sketch -->
    <title>610573BC-936E-41F9-BC53-BAEA44954059</title>
    <desc>Created with sketchtool.</desc>
    <g id="Page-1" stroke="none" stroke-width="1" fill="none" fill-rule="evenodd" stroke-linecap="square">
        <g id="Review_request" transform="translate(-672.000000, -564.000000)" stroke="#FA60AD" stroke-width="2">
            <g id="Group-3" transform="translate(673.000000, 565.000000)">
                <path d="M3,6 C1.895,6 1,5.105 1,4 C1,2.895 1.895,2 3,2 C4.105,2 5,2.895 5,4 C5,5.105 4.105,6 3,6 Z" id="Path"></path>
                <path d="M5,20 L2,20 L2,16 L0,16 L0,11 C0,9.895 0.895,9 2,9 L3,9" id="Path"></path>
                <path d="M19,6 C20.105,6 21,5.105 21,4 C21,2.895 20.105,2 19,2 C17.895,2 17,2.895 17,4 C17,5.105 17.895,6 19,6 Z" id="Path"></path>
                <path d="M17,20 L20,20 L20,16 L22,16 L22,11 C22,9.895 21.105,9 20,9 L19,9" id="Path"></path>
                <path d="M11,6 C9.343,6 8,4.657 8,3 C8,1.343 9.343,0 11,0 C12.657,0 14,1.343 14,3 C14,4.657 12.657,6 11,6 Z" id="Path"></path>
                <path d="M14,22 L8,22 L8,16 L6,16 L6,11 C6,9.895 6.895,9 8,9 L14,9 C15.105,9 16,9.895 16,11 L16,17 L14,17 L14,22 Z" id="Path"></path>
            </g>
        </g>
    </g>
</svg>