<?xml version="1.0" encoding="UTF-8"?>
<svg width="20px" height="12px" viewBox="0 0 20 12" version="1.1" xmlns="http://www.w3.org/2000/svg" xmlns:xlink="http://www.w3.org/1999/xlink">
    <!-- Generator: sketchtool 52.2 (67145) - http://www.bohemiancoding.com/sketch -->
    <title>6E0EC4F3-A0B4-4F9E-8B24-F0AF4BD97C40</title>
    <desc>Created with sketchtool.</desc>
    <g id="Page-1" stroke="none" stroke-width="1" fill="none" fill-rule="evenodd" opacity="0.5" stroke-linecap="square">
        <g id="Review_request" transform="translate(-1667.000000, -938.000000)" stroke="#1D1A94" stroke-width="2">
            <g id="small-down-copy-11" transform="translate(1669.000000, 940.000000)">
                <polyline id="Path" points="16 0 8 8 0 0"></polyline>
            </g>
        </g>
    </g>
</svg>