<?xml version="1.0" encoding="UTF-8"?>
<svg width="9px" height="13px" viewBox="0 0 9 13" version="1.1" xmlns="http://www.w3.org/2000/svg" xmlns:xlink="http://www.w3.org/1999/xlink">
    <!-- Generator: sketchtool 52.2 (67145) - http://www.bohemiancoding.com/sketch -->
    <title>2CE739BC-DF75-4D0D-B9F9-6EE89D10AD3C</title>
    <desc>Created with sketchtool.</desc>
    <g id="Page-1" stroke="none" stroke-width="1" fill="none" fill-rule="evenodd" stroke-linecap="square">
        <g id="Select_Attributes_1" transform="translate(-235.000000, -1443.000000)" stroke="#212121" stroke-width="2">
            <g id="Group-2" transform="translate(-1.000000, 1394.000000)">
                <g id="PINK-BUTTON-Copy" transform="translate(202.000000, 30.000000)">
                    <g id="Group-3">
                        <g id="small-left" transform="translate(36.000000, 21.000000)">
                            <polyline id="Path" points="5 9 0 4.5 5 0"></polyline>
                        </g>
                    </g>
                </g>
            </g>
        </g>
    </g>
</svg>