<?xml version="1.0" encoding="UTF-8"?>
<svg width="12px" height="20px" viewBox="0 0 12 20" version="1.1" xmlns="http://www.w3.org/2000/svg" xmlns:xlink="http://www.w3.org/1999/xlink">
    <!-- Generator: sketchtool 52.2 (67145) - http://www.bohemiancoding.com/sketch -->
    <title>009531D6-147B-4685-835D-FC54CF8A1951</title>
    <desc>Created with sketchtool.</desc>
    <g id="Page-1" stroke="none" stroke-width="1" fill="none" fill-rule="evenodd" opacity="0.5" stroke-linecap="square">
        <g id="Select_Attributes_3" transform="translate(-580.000000, -628.000000)" stroke="#1D1A94" stroke-width="2">
            <g id="small-down-copy-12" transform="translate(586.000000, 638.000000) rotate(90.000000) translate(-586.000000, -638.000000) translate(578.000000, 634.000000)">
                <polyline id="Path" points="16 0 8 8 0 0"></polyline>
            </g>
        </g>
    </g>
</svg>