<?xml version="1.0" encoding="UTF-8"?>
<svg width="24px" height="23px" viewBox="0 0 24 23" version="1.1" xmlns="http://www.w3.org/2000/svg" xmlns:xlink="http://www.w3.org/1999/xlink">
    <!-- Generator: sketchtool 52.2 (67145) - http://www.bohemiancoding.com/sketch -->
    <title>C3331D47-85D5-4D9B-97D5-16EC386B84BC</title>
    <desc>Created with sketchtool.</desc>
    <g id="Page-1" stroke="none" stroke-width="1" fill="none" fill-rule="evenodd">
        <g id="Select_Attributes_4_320" transform="translate(-37.000000, -329.000000)" stroke="#FA60AD" stroke-width="2">
            <g id="check-in" transform="translate(38.000000, 330.000000)">
                <path d="M9,16 L21,16" id="Path"></path>
                <polyline id="Path" stroke-linecap="square" points="17 12 21 16 17 20"></polyline>
                <polyline id="Path" stroke-linecap="square" points="13 21 0 21 0 3 22 3 22 11"></polyline>
                <path d="M6,0 L6,3" id="Path" stroke-linecap="square"></path>
                <path d="M16,0 L16,3" id="Path" stroke-linecap="square"></path>
                <path d="M0,7 L22,7" id="Path"></path>
            </g>
        </g>
    </g>
</svg>