<?xml version="1.0" encoding="UTF-8"?>
<svg width="282px" height="409px" viewBox="0 0 282 409" version="1.1" xmlns="http://www.w3.org/2000/svg" xmlns:xlink="http://www.w3.org/1999/xlink">
    <!-- Generator: sketchtool 52.3 (67297) - http://www.bohemiancoding.com/sketch -->
    <title>2D4C8422-AA85-40A7-A004-325017206A5D</title>
    <desc>Created with sketchtool.</desc>
    <defs>
        <polygon id="path-1" points="0.0601192408 0 500.993673 0 500.993673 501 0.0601192408 501"></polygon>
    </defs>
    <g id="Page-1" stroke="none" stroke-width="1" fill="none" fill-rule="evenodd">
        <g id="Document_preview_320" transform="translate(-20.000000, -201.000000)">
            <g id="shutterstock_569340787" transform="translate(-90.000000, 155.000000)">
                <g id="Group-3">
                    <mask id="mask-2" fill="white">
                        <use xlink:href="#path-1"></use>
                    </mask>
                    <g id="Clip-2"></g>
                </g>
                <polygon id="Fill-4" fill="#FFFFFF" points="110 455 392 455 392 46 110 46"></polygon>
                <polygon id="Fill-5" fill="#706F6F" points="142 135 361 135 361 129 142 129"></polygon>
                <polygon id="Fill-6" fill="#706F6F" points="142 144 361 144 361 138 142 138"></polygon>
                <polygon id="Fill-7" fill="#706F6F" points="142 152 361 152 361 146 142 146"></polygon>
                <polygon id="Fill-8" fill="#706F6F" points="143 166 350 166 350 160 143 160"></polygon>
                <polygon id="Fill-9" fill="#706F6F" points="160 195 354 195 354 190 160 190"></polygon>
                <polygon id="Fill-10" fill="#706F6F" points="160 202 354 202 354 197 160 197"></polygon>
                <polygon id="Fill-11" fill="#706F6F" points="160 211 354 211 354 206 160 206"></polygon>
                <polygon id="Fill-12" fill="#706F6F" points="160 231 354 231 354 226 160 226"></polygon>
                <polygon id="Fill-13" fill="#706F6F" points="160 238 354 238 354 233 160 233"></polygon>
                <polygon id="Fill-14" fill="#706F6F" points="160 247 354 247 354 242 160 242"></polygon>
                <polygon id="Fill-15" fill="#706F6F" points="160 267 354 267 354 262 160 262"></polygon>
                <polygon id="Fill-16" fill="#706F6F" points="160 275 354 275 354 270 160 270"></polygon>
                <polygon id="Fill-17" fill="#706F6F" points="160 282 354 282 354 277 160 277"></polygon>
                <polygon id="Fill-18" fill="#706F6F" points="142 173 256 173 256 167 142 167"></polygon>
                <polygon id="Fill-19" fill="#706F6F" points="159 186 279 186 279 180 159 180"></polygon>
                <polygon id="Fill-20" fill="#706F6F" points="147 186 156 186 156 180 147 180"></polygon>
                <polygon id="Fill-21" fill="#706F6F" points="159 222 293 222 293 216 159 216"></polygon>
                <polygon id="Fill-22" fill="#706F6F" points="147 222 156 222 156 216 147 216"></polygon>
                <polygon id="Fill-23" fill="#706F6F" points="159 257 269 257 269 251 159 251"></polygon>
                <polygon id="Fill-24" fill="#706F6F" points="147 257 156 257 156 251 147 251"></polygon>
                <polygon id="Fill-25" fill="#706F6F" points="141 297 357 297 357 291 141 291"></polygon>
                <polygon id="Fill-26" fill="#706F6F" points="141 305 357 305 357 299 141 299"></polygon>
                <polygon id="Fill-27" fill="#706F6F" points="142 312 242 312 242 306 142 306"></polygon>
                <polygon id="Fill-28" fill="#706F6F" points="188 326 211 326 211 318 188 318"></polygon>
                <polygon id="Fill-29" fill="#706F6F" points="292 326 315 326 315 318 292 318"></polygon>
                <polygon id="Fill-30" fill="#706F6F" points="158 336 240 336 240 334 158 334"></polygon>
                <polygon id="Fill-31" fill="#706F6F" points="158 341 240 341 240 339 158 339"></polygon>
                <polygon id="Fill-32" fill="#706F6F" points="158 344 240 344 240 342 158 342"></polygon>
                <polygon id="Fill-33" fill="#706F6F" points="158 351 240 351 240 349 158 349"></polygon>
                <polygon id="Fill-34" fill="#706F6F" points="158 383.846 240 383.846 240 383.154 158 383.154"></polygon>
                <polygon id="Fill-35" fill="#706F6F" points="263 383.846 345 383.846 345 383.154 263 383.154"></polygon>
                <polygon id="Fill-36" fill="#706F6F" points="263 336 345 336 345 334 263 334"></polygon>
                <polygon id="Fill-37" fill="#706F6F" points="263 341 345 341 345 339 263 339"></polygon>
                <polygon id="Fill-38" fill="#706F6F" points="263 344 345 344 345 342 263 342"></polygon>
                <polygon id="Fill-39" fill="#706F6F" points="263 351 345 351 345 349 263 349"></polygon>
                <polygon id="Fill-40" fill="#706F6F" points="156 360 198 360 198 355 156 355"></polygon>
                <polygon id="Fill-41" fill="#706F6F" points="258 360 300 360 300 355 258 355"></polygon>
                <polygon id="Fill-42" fill="#706F6F" points="153 388 184 388 184 386 153 386"></polygon>
                <polygon id="Fill-43" fill="#706F6F" points="259 388 290 388 290 386 259 386"></polygon>
                <path d="M209,86.4033508 C209,85.2928283 209.145092,84.4773194 209.43101,83.9558307 C209.721195,83.4333488 210.034851,83.0509238 210.376245,82.8065691 C211.11771,82.2731607 212.200569,82.0039732 213.623755,82 C215.614509,82.0039732 216.897937,82.5622144 217.475107,83.6727369 C217.806899,84.3114363 217.973329,85.1607178 217.973329,86.2205814 L217.973329,87.8436527 L215.313656,87.8436527 L215.313656,86.2116416 C215.313656,85.2719687 215.233642,84.6412158 215.071479,84.3114363 C214.910384,83.9806635 214.715149,83.7611416 214.488976,83.653864 C214.262802,83.5445997 213.973684,83.4889742 213.623755,83.4889742 C212.898293,83.4889742 212.400071,83.7084961 212.124822,84.1455533 C211.849573,84.5806238 211.711949,85.2640223 211.711949,86.2027018 L211.711949,92.5469836 C211.711949,93.6575061 211.835704,94.4342759 212.085349,94.8753063 C212.332859,95.3153434 212.814011,95.5348652 213.525605,95.5348652 C214.237198,95.5348652 214.714083,95.3133567 214.954125,94.8703397 C215.194168,94.4263294 215.313656,93.6495596 215.313656,92.5390371 L215.313656,90.9159658 L218,90.9159658 L218,92.5201642 C218,94.0597974 217.669275,95.1921727 217.011024,95.9153036 C216.351707,96.6394279 215.201636,97 213.55761,97 C211.917852,97 210.746444,96.6285014 210.047653,95.881531 C209.348862,95.1365472 209,94.0081452 209,92.5042712 L209,86.4033508" id="Fill-44" fill="#706F6F"></path>
                <path d="M224.322645,86.0613826 C224.322645,85.1227652 224.207841,84.4612634 223.97402,84.0699245 C223.742305,83.6795789 223.271504,83.4819229 222.564775,83.4819229 C221.858046,83.4819229 221.366179,83.6815654 221.090228,84.0818435 C220.815331,84.4801351 220.677355,85.1386571 220.677355,86.0534366 L220.677355,92.6386571 C220.677355,93.7540723 220.797425,94.5139054 221.038619,94.91617 C221.280866,95.3194279 221.767466,95.5190703 222.499473,95.5190703 C223.23148,95.5190703 223.720187,95.3164482 223.961381,94.9092173 C224.203628,94.5 224.322645,93.7431466 224.322645,92.6386571 L224.322645,86.0613826 Z M218,86.1617004 C218,84.4970203 218.465535,83.3537942 219.397659,82.7320222 C220.128613,82.2443385 221.1945,82 222.590053,82 C224.62598,82 225.926741,82.5383393 226.496548,83.6160111 C226.832534,84.2526818 227,85.1009138 227,86.1617004 L227,92.6207787 C227,94.1473977 226.668227,95.2588399 226.005734,95.9570918 C225.341135,96.6533572 224.179403,97 222.520538,97 C220.858514,97 219.691516,96.6503774 219.014277,95.9511323 C218.339146,95.2518872 218,94.1424315 218,92.6207787 L218,86.1617004 Z" id="Fill-45" fill="#706F6F"></path>
                <polyline id="Fill-46" fill="#706F6F" points="238.730566 82 241 82 241 97 239.115199 97 234.219966 86.7040879 234.368368 90.488916 234.368368 97 232 97 232 82 233.934268 82 238.991026 92.2094773 238.730566 87.8724832 238.730566 82"></polyline>
                <polyline id="Fill-47" fill="#706F6F" points="243 82 251 82 251 83.4673581 248.507149 83.4673581 248.507149 97 245.671152 97 245.671152 83.4673581 243 83.4673581 243 82"></polyline>
                <path d="M257.149529,85.6739882 C257.149529,84.520846 256.99268,83.8517389 256.680028,83.6707342 C256.368421,83.4887126 255.916696,83.3971934 255.325898,83.3971934 L253.657023,83.3971934 L253.657023,88.4612569 L255.352039,88.4612569 C255.865458,88.4612569 256.241896,88.3961765 256.482398,88.2629652 C256.721854,88.1328046 256.892297,87.8836689 256.994772,87.5145414 C257.098292,87.1433801 257.149529,86.5657921 257.149529,85.7766931 L257.149529,85.6739882 Z M251,82 L255.736842,82 C257.080516,82 258.047752,82.1850722 258.63855,82.5552166 C259.229348,82.9243441 259.583827,83.5507423 259.705124,84.436445 C259.756361,84.8004881 259.780411,85.3689241 259.780411,86.1387025 C259.780411,86.9084808 259.629836,87.5531828 259.325549,88.0768761 C259.021262,88.6005695 258.483792,88.9381737 257.715232,89.0896888 C258.277797,89.1527354 258.707564,89.3530608 258.998257,89.6845638 C259.288951,90.0170836 259.4939,90.5448444 259.615197,91.26988 C259.733357,91.9938987 259.795051,93.0707749 259.795051,94.5005084 C259.795051,95.9292251 259.861973,96.7600163 260,97 L257.353433,97 C257.217497,96.8169616 257.149529,95.1340248 257.149529,91.9471222 C257.149529,90.8722798 256.991635,90.2499492 256.673754,90.0760626 C256.35901,89.9042099 255.878006,89.8157413 255.235971,89.8157413 L253.657023,89.7537116 L253.657023,97 L251,97 L251,82 Z" id="Fill-48" fill="#706F6F"></path>
                <path d="M264.296326,92.704698 L267.643117,92.704698 L265.919257,84.7781167 L265.881914,84.7781167 L264.296326,92.704698 Z M264.308438,82 L267.394832,82 L271,97 L268.585789,97 L267.965079,94.1354484 L264.012717,94.1354484 L263.441461,97 L261,97 L264.308438,82 Z" id="Fill-49" fill="#706F6F"></path>
                <path d="M275,86.4033508 C275,85.2928283 275.142959,84.4773194 275.433144,83.9558307 C275.719061,83.4333488 276.033784,83.0509238 276.375178,82.8065691 C277.11771,82.2731607 278.200569,82.0039732 279.623755,82 C281.615576,82.0039732 282.897937,82.5622144 283.476174,83.6727369 C283.805832,84.3114363 283.973329,85.1607178 283.973329,86.2205814 L283.973329,87.8436527 L281.312589,87.8436527 L281.312589,86.2116416 C281.312589,85.2719687 281.233642,84.6412158 281.070413,84.3114363 C280.909317,83.9806635 280.716216,83.7611416 280.488976,83.653864 C280.260669,83.5445997 279.973684,83.4889742 279.623755,83.4889742 C278.89936,83.4889742 278.399004,83.7084961 278.123755,84.1455533 C277.848506,84.5806238 277.710882,85.2640223 277.710882,86.2027018 L277.710882,92.5469836 C277.710882,93.6575061 277.835704,94.4342759 278.084282,94.8753063 C278.333926,95.3153434 278.815078,95.5348652 279.525605,95.5348652 C280.236131,95.5348652 280.714083,95.3133567 280.954125,94.8703397 C281.194168,94.4263294 281.312589,93.6495596 281.312589,92.5390371 L281.312589,90.9159658 L284,90.9159658 L284,92.5201642 C284,94.0597974 283.670341,95.1921727 283.00889,95.9153036 C282.35064,96.6394279 281.201636,97 279.558677,97 C277.917852,97 276.745377,96.6285014 276.04872,95.881531 C275.349929,95.1365472 275,94.0081452 275,92.5042712 L275,86.4033508" id="Fill-50" fill="#706F6F"></path>
                <polyline id="Fill-51" fill="#706F6F" points="285 82 293 82 293 83.4673581 290.509392 83.4673581 290.509392 97 287.671152 97 287.671152 83.4673581 285 83.4673581 285 82"></polyline>
                <path d="M205.293975,114.705715 L208.641437,114.705715 L206.918761,106.779134 L206.881421,106.779134 L205.293975,114.705715 Z M205.307095,104 L208.393178,104 L212,119 L209.583005,119 L208.963367,116.135448 L205.009385,116.135448 L204.441215,119 L202,119 L205.307095,104 Z" id="Fill-52" fill="#706F6F"></path>
                <path d="M212,108.329086 C212,106.171013 212.802033,104.830181 214.405035,104.308581 C215.031557,104.108501 215.719773,104.004977 216.467557,104 C217.869519,104 218.884293,104.18913 219.511878,104.570376 C220.137336,104.951623 220.541544,105.455306 220.724501,106.08043 C220.908521,106.70655 221,107.468047 221,108.362931 L221,109.497711 L218.387543,109.497711 L218.387543,107.586502 C218.387543,106.83695 218.267344,106.299423 218.028011,105.976906 C217.788677,105.65439 217.31852,105.492136 216.618603,105.492136 C215.917622,105.492136 215.421936,105.695202 215.1358,106.101334 C214.849663,106.507466 214.704999,107.22616 214.704999,108.25443 L214.704999,114.427036 C214.704999,115.601632 214.830516,116.417878 215.083678,116.875771 C215.33684,117.333665 215.834653,117.563607 216.578182,117.563607 C217.322775,117.563607 217.831226,117.328688 218.106725,116.855863 C218.381161,116.382043 218.518378,115.561816 218.518378,114.394187 L218.518378,112.482978 L216.650514,112.482978 L216.650514,111.149114 L221,111.149114 L221,118.857655 L219.576764,118.857655 L219.21085,117.721879 C218.697081,118.57396 217.714218,119 216.265453,119 C214.816688,119 213.742347,118.638662 213.045621,117.917977 C212.349959,117.199283 212,116.053554 212,114.48477 L212,108.329086" id="Fill-53" fill="#706F6F"></path>
                <path d="M231.150244,107.671954 C231.150244,106.519829 230.993377,105.852756 230.681734,105.669717 C230.367999,105.48973 229.918313,105.39821 229.325354,105.39821 L227.658378,105.39821 L227.658378,110.46024 L229.352545,110.46024 C229.866024,110.46024 230.242505,110.39516 230.484081,110.264999 C230.722519,110.133821 230.892982,109.883669 230.995468,109.514541 C231.099001,109.145414 231.150244,108.565792 231.150244,107.775676 L231.150244,107.671954 Z M225,104 L229.738438,104 C231.081222,104 232.049617,104.185072 232.639438,104.5542 C233.23135,104.924344 233.58587,105.551759 233.705089,106.438479 C233.757379,106.802522 233.782477,107.368924 233.782477,108.138702 C233.782477,108.908481 233.630839,109.5542 233.326516,110.077893 C233.02324,110.598536 232.485708,110.937157 231.714966,111.090706 C232.278643,111.153752 232.708459,111.351027 233.000232,111.683547 C233.289914,112.016067 233.494887,112.543828 233.616198,113.267846 C233.735417,113.993899 233.796073,115.069758 233.796073,116.498475 C233.796073,117.927191 233.863003,118.761033 234,119 L231.355217,119 C231.219266,118.817978 231.150244,117.133008 231.150244,113.947122 C231.150244,112.873297 230.991285,112.249949 230.675459,112.075046 C230.359633,111.903193 229.878573,111.815741 229.236463,111.815741 L227.658378,111.755745 L227.658378,119 L225,119 L225,104 Z" id="Fill-54" fill="#706F6F"></path>
                <polyline id="Fill-55" fill="#706F6F" points="236 104 242.947296 104 242.947296 105.465324 238.735249 105.465324 238.735249 110.597519 242.722495 110.597519 242.722495 112.06386 238.735249 112.06386 238.735249 117.532642 243 117.532642 243 119 236 119 236 104"></polyline>
                <polyline id="Fill-56" fill="#706F6F" points="247 104 253.947279 104 253.947279 105.465324 249.735014 105.465324 249.735014 110.597519 253.724562 110.597519 253.724562 112.06386 249.735014 112.06386 249.735014 117.532642 254 117.532642 254 119 247 119 247 104"></polyline>
                <polyline id="Fill-57" fill="#706F6F" points="265.403006 104 269 104 269 119 266.443645 119 266.443645 112.98312 266.680052 107.376042 263.361315 118.973561 260.763109 118.973561 257.304112 107.376042 257.54165 112.98312 257.54165 119 255 119 255 104 258.583421 104 262.083138 116.332723 265.403006 104"></polyline>
                <polyline id="Fill-58" fill="#706F6F" points="271 104 277.948363 104 277.948363 105.465324 273.733518 105.465324 273.733518 110.597519 277.721377 110.597519 277.721377 112.06386 273.733518 112.06386 273.733518 117.532642 278 117.532642 278 119 271 119 271 104"></polyline>
                <polyline id="Fill-59" fill="#706F6F" points="288.730566 104 291 104 291 119 289.11419 119 284.218957 108.705105 284.367358 112.487899 284.367358 119 282 119 282 104 283.933259 104 288.990017 114.211511 288.730566 109.8735 288.730566 104"></polyline>
                <polyline id="Fill-60" fill="#706F6F" points="292 104 300 104 300 105.465324 297.509392 105.465324 297.509392 119 294.672274 119 294.672274 105.465324 292 105.465324 292 104"></polyline>
                <polygon id="Fill-61" fill="#706F6F" points="339 57 383 57 383 55 339 55"></polygon>
                <polygon id="Fill-62" fill="#706F6F" points="335 61 383 61 383 59 335 59"></polygon>
                <polygon id="Fill-63" fill="#706F6F" points="328 66 383 66 383 64 328 64"></polygon>
                <polygon id="Fill-64" fill="#706F6F" points="349 71 383 71 383 69 349 69"></polygon>
                <polygon id="Fill-65" fill="#706F6F" points="218 450 258 450 258 448 218 448"></polygon>
                <polygon id="Fill-66" fill="#706F6F" points="261 450 269 450 269 448 261 448"></polygon>
                <polygon id="Fill-67" fill="#706F6F" points="274 450 282 450 282 448 274 448"></polygon>
                <path d="M201.492713,414 C187.190709,414 175.497461,402.617534 175,388.438745 L178.061523,388.438745 C178.55704,400.932358 188.877413,410.94143 201.492713,410.94143 C214.420869,410.94143 224.940421,400.42632 224.940421,387.498543 C224.940421,386.364085 224.859777,385.249052 224.703349,384.15733 L227.790134,384.15733 C227.929073,385.251965 228,386.366998 228,387.498543 C228,402.111496 216.109516,414 201.492713,414 M178.077068,386.226162 L175.014574,386.226162 C175.047609,385.528781 175.107848,384.840141 175.193349,384.15733 L178.280133,384.15733 C178.182973,384.838199 178.114961,385.52781 178.077068,386.226162 M227.69686,383.485202 L224.596473,383.485202 C222.687272,372.465025 213.052852,364.05857 201.492713,364.05857 C189.931603,364.05857 180.297182,372.465025 178.38701,383.485202 L175.287595,383.485202 C177.228858,370.771107 188.241013,361 201.492713,361 C214.744413,361 225.755596,370.771107 227.69686,383.485202" id="Fill-68" fill="#6F68A8"></path>
                <path d="M228,384 L224.889552,384 C224.857243,383.666185 224.821018,383.330925 224.781856,383 L227.906011,383 C227.940278,383.33237 227.971607,383.66474 228,384 M178.110448,384 L175,384 C175.029372,383.66474 175.060701,383.33237 175.094968,383 L178.218144,383 C178.178982,383.330925 178.143736,383.666185 178.110448,384" id="Fill-69" fill="#443D7D"></path>
                <path d="M177.984925,388 L175.016018,388 C175.005653,387.718174 175,387.43547 175,387.150132 C175,386.765584 175.010364,386.381036 175.030151,386 L178,386 C177.978329,386.381036 177.967023,386.764706 177.967023,387.150132 C177.967023,387.43547 177.972676,387.718174 177.984925,388" id="Fill-70" fill="#443D7D"></path>
                <path d="M201.488088,404 C192.153894,404 184.501305,396.663322 184,387.458748 L184.795139,387.458748 L184.795139,385.199019 L184.021839,385.199019 C184.075444,384.481818 184.171734,383.777513 184.308724,383.086104 L187.509133,383.086104 C187.242101,384.180257 187.100147,385.323017 187.100147,386.498512 C187.100147,394.427401 193.554569,400.87725 201.488088,400.87725 C209.420614,400.87725 215.875035,394.427401 215.875035,386.498512 C215.875035,385.323017 215.733082,384.180257 215.465058,383.086104 L218.665466,383.086104 C218.885842,384.190177 219,385.330953 219,386.498512 C219,396.148485 211.143911,404 201.488088,404 M218.514578,382.399654 L215.279426,382.399654 C213.50848,376.463651 207.996114,372.12275 201.488088,372.12275 C194.979069,372.12275 189.466703,376.463651 187.695757,382.399654 L184.459612,382.399654 C186.311958,374.721736 193.24386,369 201.488088,369 C209.731323,369 216.663225,374.721736 218.514578,382.399654" id="Fill-71" fill="#6F68A8"></path>
                <path d="M219,384 L215.832823,384 C215.776828,383.663295 215.71592,383.32948 215.649119,383 L218.850679,383 C218.905692,383.330925 218.954811,383.66474 219,384 M188.167177,384 L185,384 C185.045189,383.66474 185.09529,383.330925 185.149321,383 L188.351864,383 C188.285062,383.32948 188.223172,383.663295 188.167177,384" id="Fill-72" fill="#443D7D"></path>
                <path d="M183.9135,388 L183.1125,388 C183.0955,387.719052 183.0865,387.43547 183.0865,387.150132 C183.0865,386.763828 183.1025,386.37928 183.1345,386 L183.9135,386 L183.9135,388" id="Fill-73" fill="#443D7D"></path>
                <path d="M210.715365,408 L210.715365,406.282363 C216.211164,404.005988 220.495682,399.410804 222.327277,393.717341 L224,393.717341 C222.05608,400.285788 217.086485,405.597329 210.715365,408 M195.170075,408 C192.239522,406.886567 189.611536,405.167919 187.4288,402.974396 L188.846516,402.145888 C190.662933,403.895857 192.796084,405.311393 195.170075,406.282363 L195.170075,408 M181.790318,393.382907 C181.349116,391.808743 181.076907,390.166884 181,388.466424 L182.594804,388.466424 C182.662603,389.864782 182.873085,391.221716 183.208034,392.525099 L181.790318,393.382907 M182.614031,386.16479 L181.018215,386.16479 C181.061728,385.43732 181.140658,384.719954 181.253995,384.012691 L182.869037,384.012691 C182.746594,384.717933 182.660579,385.436309 182.614031,386.16479 M183.002612,383.313512 L181.37745,383.313512 C182.835644,375.802385 188.150307,369.64112 195.170075,367 L195.170075,368.700461 C189.028664,371.239533 184.393006,376.687474 183.002612,383.313512" id="Fill-74" fill="#6F68A8"></path>
                <path d="M181.847222,383.846 L180,383.846 C180.042824,383.614 180.090278,383.383 180.141204,383.154 L182,383.154 C181.944444,383.383 181.893519,383.614 181.847222,383.846" id="Fill-75" fill="#443D7D"></path>
                <path d="M181.976485,388 L180.02599,388 C180.008663,387.717296 180,387.432836 180,387.14662 C180,386.761194 180.016089,386.37928 180.048267,386 L182,386 C181.965347,386.37928 181.94802,386.761194 181.94802,387.14662 C181.94802,387.432836 181.957921,387.717296 181.976485,388" id="Fill-76" fill="#443D7D"></path>
                <path d="M224,383 L222.315719,383 C222.283509,382.877472 222.25026,382.739384 222.201425,382.616856 L222.511058,382.44765 L221.743209,381.225284 C220.826777,378.790276 219.404334,376.571151 217.589135,374.688493 L216.673742,373.234684 L216.29761,373.448622 C214.464747,371.841167 212.355499,370.541005 210,369.636629 L210,368 C216.96779,370.463209 222.299095,376.08201 224,383" id="Fill-77" fill="#6F68A8"></path>
                <path d="M216,375 C215.683829,374.389967 215.353982,373.820067 215,373.294314 L215.291231,373 L216,375" id="Fill-78" fill="#6F68A8"></path>
                <path d="M220.5715,382 C220.4455,381.319357 220.3035,380.656883 220.1305,380 L220.8695,381.756813 L220.5715,382" id="Fill-79" fill="#6F68A8"></path>
                <path d="M192.068243,384 L191.736824,383.238769 L193.687838,383.238769 L192.068243,384 M195.240541,382.510178 L191.419595,382.510178 L191,381.546795 L204.931757,375 L206,377.456364 L195.240541,382.510178" id="Fill-80" fill="#6F68A8"></path>
                <polyline id="Fill-81" fill="#443D7D" points="193.96817 383.846 191.415119 383.846 191 383.154 196 383.154 193.96817 383.846"></polyline>
                <path d="M192.041453,392 L191,389.561911 L200.860208,384.837461 L206.991342,384.837461 L192.041453,392 M208.504117,384.113359 L202.372983,384.113359 L210.957559,380 L212,382.438089 L208.504117,384.113359" id="Fill-82" fill="#6F68A8"></path>
                <polyline id="Fill-83" fill="#443D7D" points="206.416753 383.846 200 383.846 201.583247 383.154 208 383.154 206.416753 383.846"></polyline>
                <polyline id="Fill-84" fill="#6F68A8" points="195.014207 395 194 392.632836 209.986755 385 211 387.367164 195.014207 395"></polyline>
                <polyline id="Fill-85" fill="#6F68A8" points="200.103563 398 199 395.529537 208.895389 391 210 393.471524 200.103563 398"></polyline>
                <path d="M337.187606,371.217228 C327.105962,363.118112 312.315341,364.730162 304.216987,374.812517 C296.11669,384.894872 297.731696,399.685112 307.812368,407.783256 C317.893041,415.881401 332.683662,414.269351 340.782988,404.186996 C348.882313,394.105613 347.26925,379.315373 337.187606,371.217228 Z M305.897099,410.166835 C294.49974,401.012453 292.677756,384.29339 301.831403,372.897297 C310.986993,361.500232 327.706488,359.676352 339.101904,368.833649 C350.499263,377.987059 352.32319,394.707095 343.168572,406.102216 C334.01201,417.500252 317.293486,419.323161 305.897099,410.166835 Z" id="Fill-86" fill="#009FE3"></path>
                <path d="M333.507309,378.28652 C327.325687,373.319571 318.252229,374.309983 313.287282,380.491627 C308.32035,386.675256 309.309767,395.745769 315.492381,400.712719 C321.675988,405.679668 330.746469,404.690248 335.713401,398.508604 C340.67934,392.324975 339.689923,383.25347 333.507309,378.28652 Z M313.535381,403.150047 C306.009065,397.103369 304.806283,386.060962 310.850955,378.535612 C316.895626,371.011254 327.937994,369.804499 335.465302,375.851177 C342.990625,381.896862 344.194399,392.938277 338.147743,400.46462 C332.104064,407.988977 321.060704,409.19474 313.535381,403.150047 Z" id="Fill-87" fill="#009FE3"></path>
                <path d="M335.788944,373.081645 C327.01135,366.030783 314.134041,367.43671 307.081844,376.213902 C300.030659,384.992104 301.43564,397.86579 310.212223,404.918673 C318.990828,411.968525 331.867126,410.563608 338.918312,401.786417 C345.970508,393.007204 344.565527,380.133518 335.788944,373.081645 Z M309.217618,406.158841 C299.755727,398.558141 298.240571,384.677766 305.84162,375.21631 C313.441658,365.755864 327.32368,364.240777 336.783549,371.841477 C346.244429,379.441167 347.758574,393.322552 340.159547,402.784009 C332.558498,412.243444 318.678498,413.759541 309.217618,406.158841 Z" id="Fill-88" fill="#009FE3"></path>
                <polyline id="Fill-89" fill="#009FE3" points="334.205436 386 325 378.062833 325.794564 377 335 384.940362 334.205436 386"></polyline>
                <polyline id="Fill-90" fill="#009FE3" points="334.177505 391 320 378.155857 320.823521 377 335 389.845301 334.177505 391"></polyline>
                <polyline id="Fill-91" fill="#009FE3" points="332.26117 394 317 380.046487 317.736988 379 333 392.953513 332.26117 394"></polyline>
                <polyline id="Fill-92" fill="#009FE3" points="327.170183 393 317 385.009119 317.830853 384 328 391.988855 327.170183 393"></polyline>
                <polyline id="Fill-93" fill="#009FE3" points="321.172255 401 311 393.011145 311.829817 392 322 399.989868 321.172255 401"></polyline>
                <polyline id="Fill-94" fill="#009FE3" points="329.269753 398 312 382.982854 312.730247 382 330 397.016159 329.269753 398"></polyline>
                <polyline id="Fill-95" fill="#009FE3" points="324.157032 400 311 389.083598 311.842968 388 325 398.915316 324.157032 400"></polyline>
            </g>
        </g>
    </g>
</svg>