<?xml version="1.0" encoding="UTF-8"?>
<svg width="24px" height="24px" viewBox="0 0 24 24" version="1.1" xmlns="http://www.w3.org/2000/svg" xmlns:xlink="http://www.w3.org/1999/xlink">
    <!-- Generator: sketchtool 52.3 (67297) - http://www.bohemiancoding.com/sketch -->
    <title>80B8EB02-C035-4187-B9B0-975D15CBB241</title>
    <desc>Created with sketchtool.</desc>
    <g id="Page-1" stroke="none" stroke-width="1" fill="none" fill-rule="evenodd" stroke-linecap="square">
        <g id="Project_page" transform="translate(-1422.000000, -431.000000)" stroke="#FA60AD" stroke-width="2">
            <g id="b-meeting" transform="translate(1423.000000, 432.000000)">
                <polygon id="Path" points="22 0 10 0 10 10 15 6 22 6"></polygon>
                <path d="M9,20.836 C9,20.232 8.735,19.657 8.262,19.282 C7.539,18.708 6.285,18 4.5,18 C2.715,18 1.461,18.708 0.738,19.282 C0.265,19.657 0,20.232 0,20.836 L0,22 L9,22 L9,20.836 Z" id="Path"></path>
                <circle id="Oval" cx="4.5" cy="12.5" r="2.5"></circle>
                <path d="M22,20.836 C22,20.232 21.735,19.657 21.262,19.282 C20.539,18.708 19.285,18 17.5,18 C15.715,18 14.461,18.708 13.738,19.282 C13.265,19.657 13,20.232 13,20.836 L13,22 L22,22 L22,20.836 Z" id="Path"></path>
                <circle id="Oval" cx="17.5" cy="12.5" r="2.5"></circle>
            </g>
        </g>
    </g>
</svg>