<?xml version="1.0" encoding="UTF-8"?>
<svg width="23px" height="18px" viewBox="0 0 23 18" version="1.1" xmlns="http://www.w3.org/2000/svg" xmlns:xlink="http://www.w3.org/1999/xlink">
    <!-- Generator: sketchtool 52.3 (67297) - http://www.bohemiancoding.com/sketch -->
    <title>EB8DE81A-97C2-40DE-BE45-76A48C68AAC2</title>
    <desc>Created with sketchtool.</desc>
    <g id="Page-1" stroke="none" stroke-width="1" fill="none" fill-rule="evenodd">
        <g id="Project_page" transform="translate(-1483.000000, -1501.000000)" fill="#30DEC1">
            <g id="check-simple-copy-2" transform="translate(1483.000000, 1501.000000)">
                <polygon id="Path" points="8 18 0 10 3 7 8 12 20 0 23 3"></polygon>
            </g>
        </g>
    </g>
</svg>