<?xml version="1.0" encoding="UTF-8"?>
<svg width="9px" height="13px" viewBox="0 0 9 13" version="1.1" xmlns="http://www.w3.org/2000/svg" xmlns:xlink="http://www.w3.org/1999/xlink">
    <!-- Generator: sketchtool 52.2 (67145) - http://www.bohemiancoding.com/sketch -->
    <title>07081483-DCE2-4FBC-86DF-B5082B69A08D</title>
    <desc>Created with sketchtool.</desc>
    <g id="Page-1" stroke="none" stroke-width="1" fill="none" fill-rule="evenodd" stroke-linecap="square">
        <g id="Select_Attributes_3_320" transform="translate(-36.000000, -683.000000)" stroke="#212121" stroke-width="2">
            <polyline id="Path" points="43 694 38 689.5 43 685"></polyline>
        </g>
    </g>
</svg>