<?xml version="1.0" encoding="UTF-8"?>
<svg width="47px" height="46px" viewBox="0 0 47 46" version="1.1" xmlns="http://www.w3.org/2000/svg" xmlns:xlink="http://www.w3.org/1999/xlink">
    <!-- Generator: sketchtool 52.2 (67145) - http://www.bohemiancoding.com/sketch -->
    <title>AA051277-6E92-4B88-8FFA-3967BD1F8B8E</title>
    <desc>Created with sketchtool.</desc>
    <g id="Page-1" stroke="none" stroke-width="1" fill="none" fill-rule="evenodd" stroke-linecap="square">
        <g id="Homepage" transform="translate(-941.000000, -2227.000000)" stroke="#FA60AD" stroke-width="3">
            <g id="cart-speed" transform="translate(943.000000, 2229.000000)">
                <polyline id="Path" points="0 28 39 28 43 7 9 7 8 0 2 0"></polyline>
                <circle id="Oval" cx="13" cy="38" r="4"></circle>
                <circle id="Oval" cx="37" cy="38" r="4"></circle>
                <path d="M21,14 L8,14" id="Path"></path>
                <path d="M17,21 L4,21" id="Path"></path>
            </g>
        </g>
    </g>
</svg>