<?xml version="1.0" encoding="UTF-8"?>
<svg width="47px" height="47px" viewBox="0 0 47 47" version="1.1" xmlns="http://www.w3.org/2000/svg" xmlns:xlink="http://www.w3.org/1999/xlink">
    <!-- Generator: sketchtool 52.2 (67145) - http://www.bohemiancoding.com/sketch -->
    <title>D76FB40E-846B-456F-90BD-ACA7F013BE2D</title>
    <desc>Created with sketchtool.</desc>
    <g id="Page-1" stroke="none" stroke-width="1" fill="none" fill-rule="evenodd" stroke-linecap="square">
        <g id="Homepage" transform="translate(-367.000000, -4232.000000)" stroke="#FA60AD" stroke-width="3">
            <g id="settings-gear-65" transform="translate(368.000000, 4233.000000)">
                <circle id="Oval" cx="22.5" cy="22.5" r="7"></circle>
                <path d="M44.5,22.5 C44.5001042,20.8041535 43.2000202,19.3914535 41.51,19.251 L38.1,18.966 C37.6993715,17.1962313 36.9985725,15.508158 36.028,13.975 L38.245,11.355 C39.3403513,10.0607975 39.2607883,8.14302509 38.062,6.944 C36.8629749,5.74521168 34.9452025,5.66564869 33.651,6.761 L31.031,8.978 C29.4965383,8.00444781 27.8063197,7.30157125 26.034,6.9 L25.749,3.49 C25.6085465,1.79997982 24.1958465,0.499895845 22.5,0.5 C20.8041535,0.499895845 19.3914535,1.79997982 19.251,3.49 L18.966,6.9 C17.1962313,7.30062853 15.508158,8.00142754 13.975,8.972 L11.355,6.76 C10.0607975,5.66464869 8.14302509,5.74421168 6.944,6.943 C5.74521168,8.14202509 5.66564869,10.0597975 6.761,11.354 L8.978,13.974 C8.00497246,15.5069315 7.30211357,17.1954164 6.9,18.966 L3.485,19.251 C1.79695746,19.3939056 0.499678005,20.8059193 0.5,22.5 C0.499895845,24.1958465 1.79997982,25.6085465 3.49,25.749 L6.905,26.034 C7.30562853,27.8037687 8.00642754,29.491842 8.977,31.025 L6.76,33.645 C5.66464869,34.9392025 5.74421168,36.8569749 6.943,38.056 C8.14202509,39.2547883 10.0597975,39.3343513 11.354,38.239 L13.974,36.022 C15.5069315,36.9950275 17.1954164,37.6978864 18.966,38.1 L19.251,41.515 C19.3939056,43.2030425 20.8059193,44.500322 22.5,44.5 C24.1958465,44.5001042 25.6085465,43.2000202 25.749,41.51 L26.034,38.095 C27.8037687,37.6943715 29.491842,36.9935725 31.025,36.023 L33.645,38.24 C34.9392025,39.3353513 36.8569749,39.2557883 38.056,38.057 C39.2547883,36.8579749 39.3343513,34.9402025 38.239,33.646 L36.022,31.026 C36.9950275,29.4930685 37.6978864,27.8045836 38.1,26.034 L41.515,25.749 C43.2030425,25.6060944 44.500322,24.1940807 44.5,22.5 Z" id="Path"></path>
            </g>
        </g>
    </g>
</svg>