<?xml version="1.0" encoding="UTF-8"?>
<svg width="24px" height="24px" viewBox="0 0 24 24" version="1.1" xmlns="http://www.w3.org/2000/svg" xmlns:xlink="http://www.w3.org/1999/xlink">
    <!-- Generator: sketchtool 52.2 (67145) - http://www.bohemiancoding.com/sketch -->
    <title>58A9E454-35E5-4BBE-A1CF-4CBF630BFA48</title>
    <desc>Created with sketchtool.</desc>
    <g id="Page-1" stroke="none" stroke-width="1" fill="none" fill-rule="evenodd" stroke-linecap="square">
        <g id="Ready_to_order" transform="translate(-752.000000, -931.000000)" stroke="#FA60AD" stroke-width="2">
            <g id="office" transform="translate(753.000000, 932.000000)">
                <polyline id="Path" points="17 5 17 0 5 0 5 8"></polyline>
                <path d="M9,22 L13,22" id="Path"></path>
                <rect id="Rectangle" x="0" y="11" width="9" height="11"></rect>
                <rect id="Rectangle" x="13" y="8" width="9" height="14"></rect>
                <path d="M17,12 L18,12" id="Path"></path>
                <path d="M17,15 L18,15" id="Path"></path>
                <path d="M17,18 L18,18" id="Path"></path>
                <path d="M4,18 L5,18" id="Path"></path>
                <path d="M4,15 L5,15" id="Path"></path>
            </g>
        </g>
    </g>
</svg>