<?xml version="1.0" encoding="UTF-8"?>
<svg width="24px" height="24px" viewBox="0 0 24 24" version="1.1" xmlns="http://www.w3.org/2000/svg" xmlns:xlink="http://www.w3.org/1999/xlink">
    <!-- Generator: sketchtool 52.2 (67145) - http://www.bohemiancoding.com/sketch -->
    <title>E650B131-DC7F-4FD6-A5F7-1B509EC23E32</title>
    <desc>Created with sketchtool.</desc>
    <g id="Page-1" stroke="none" stroke-width="1" fill="none" fill-rule="evenodd" stroke-linecap="square">
        <g id="Ready_to_order" transform="translate(-755.000000, -1061.000000)" stroke="#FA60AD" stroke-width="2">
            <g id="phone-2" transform="translate(756.000000, 1063.000000)">
                <path d="M16,13 L13,16 L5,8 L8,5 L3,0 L0,3 C0,12.941 8.059,21 18,21 L21,18 L16,13 Z" id="Path"></path>
            </g>
        </g>
    </g>
</svg>